<?xml version="1.0" encoding="UTF-8" standalone="no"?>
<!-- Created with Inkscape (http://www.inkscape.org/) -->

<svg
   width="210mm"
   height="297mm"
   viewBox="0 0 210 297"
   version="1.1"
   id="svg5"
   xml:space="preserve"
   sodipodi:docname="multispiral.svg"
   inkscape:version="1.2.2 (b0a8486541, 2022-12-01)"
   xmlns:inkscape="http://www.inkscape.org/namespaces/inkscape"
   xmlns:sodipodi="http://sodipodi.sourceforge.net/DTD/sodipodi-0.dtd"
   xmlns="http://www.w3.org/2000/svg"
   xmlns:svg="http://www.w3.org/2000/svg"><sodipodi:namedview
     id="namedview7"
     pagecolor="#ffffff"
     bordercolor="#666666"
     borderopacity="1.0"
     inkscape:showpageshadow="2"
     inkscape:pageopacity="0.0"
     inkscape:pagecheckerboard="0"
     inkscape:deskcolor="#d1d1d1"
     inkscape:document-units="mm"
     showgrid="false"
     inkscape:zoom="1.4756153"
     inkscape:cx="133.16479"
     inkscape:cy="1088.3595"
     inkscape:window-width="1600"
     inkscape:window-height="841"
     inkscape:window-x="0"
     inkscape:window-y="0"
     inkscape:window-maximized="1"
     inkscape:current-layer="layer1" /><defs
     id="defs2" /><g
     inkscape:label="Layer 1"
     inkscape:groupmode="layer"
     id="layer1"><path
       style="fill:#000000;stroke-width:0.529166"
       d="m 13.929034,338.12761 c -0.87312,-0.29552 -2.40696,-0.81054 -3.40852,-1.14452 -2.1581002,-0.71962 -4.2681002,-3.9695 -5.1612202,-7.94946 -0.51196,-2.2815 -0.45256,-2.85122 0.4847,-4.64944 1.2329,-2.36534 3.26588,-3.56566 5.1746202,-3.05524 3.8444,1.02804 3.84372,1.02736 3.56014,3.54326 -0.1812,1.60696 -0.7408,2.85212 -1.77988,3.9599 -1.34646,1.43546 -1.37942,1.54526 -0.29516,0.98348 0.67128,-0.3478 1.3516,-0.97396 1.51182,-1.39148 0.42698,-1.11266 1.23642,-0.92568 1.23642,0.2856 0,0.62172 -0.63216,1.37164 -1.56122,1.85208 -1.80504,0.93342 -3.7304602,1.06088 -3.7304602,0.24694 0,-0.30822 -0.25882,-0.40044 -0.57514,-0.20492 -0.678,0.41902 2.5296602,3.94032 3.5893802,3.94032 0.37946,0 0.68994,0.23812 0.68994,0.52916 0,0.29106 0.35718,0.52918 0.79374,0.52918 0.43656,0 0.79376,-0.3572 0.79376,-0.79376 0,-0.43656 0.44708,-0.79374 0.99354,-0.79374 1.52996,0 1.99222,-1.0292 2.10792,-4.69326 0.1052,-3.33356 -0.745,-6.41166 -1.77544,-6.42734 -0.29274,-0.004 -0.20088,-0.21798 0.20418,-0.47446 0.61132,-0.38712 0.56066,-0.72288 -0.29828,-1.97628 -0.5691,-0.83044 -1.35532,-2.52194 -1.74718,-3.75888 -0.57748,-1.82286 -0.953,-2.24896 -1.98192,-2.24896 -0.71466,0 -1.126,-0.23212 -0.9412,-0.5311 0.33962,-0.54952 -3.8177602,-6.87722 -4.5184202,-6.87722 -0.21734,0 -0.54456,-0.59532 -0.72716,-1.32292 -0.1826,-0.7276 -0.6674,-1.32292 -1.0773,-1.32292 -0.40988,0 -1.17926,-0.54844 -1.7097,-1.21876 -0.53046,-0.67032 -1.38118,-1.37722 -1.8905,-1.57088 -0.8280801,-0.3149 -0.9260401,0.0456 -0.9260401,3.4067 0,4.11642 -0.79476,9.74552 -2.4530999,17.3746 -0.2493,1.14692 -1.9455,4.90126 -3.6255,8.0247 -0.2873,0.53412 -0.82308,0.97114 -1.19062,0.97114 -0.36756,0 -0.66828,0.35718 -0.66828,0.79376 0,1.39784 -0.0612,1.57178 -0.86572,2.46078 -0.84348,0.93202 -3.0413598,1.73522 -2.5433598,0.92944 0.163,-0.2639 -0.8486,-0.4855 -2.24822,-0.49244 -3.52796,-0.018 -6.62308,-0.81428 -7.4254,-1.9115 -1.25558,-1.71712 -0.55784,-8.54254 1.08822,-10.6452 3.71728,-4.74836 7.83862,-5.60806 10.3834598,-2.16598 1.30566,1.766 1.07384,2.6473 -0.3701,1.40694 -1.0884198,-0.93496 -2.9648198,-1.68406 -2.5542398,-1.01972 0.1552,0.25106 -0.30872,0.90016 -1.03084,1.44246 -1.58166,1.18778 -1.7125,2.84606 -0.25462,3.2273 1.23326,0.32252 1.42742,1.21166 0.26458,1.21166 -0.43656,0 -0.79376,0.25418 -0.79376,0.56482 0,1.5386 4.4379398,-1.3544 5.0536598,-3.29436 0.45356,-1.42908 1.29634,-1.18814 1.29634,0.37062 0,2.38434 -3.1693798,5.53392 -5.5687198,5.53392 -2.29544,0 -2.97582,-0.98878 -3.07726,-4.47222 -0.1676,-5.7517 -1.9609,-2.3641 -1.89558,3.58062 0.023,2.09112 0.1618,3.50436 0.30868,3.14056 0.1468,-0.3638 0.49924,-0.66146 0.78322,-0.66146 0.28396,0 0.368,0.23996 0.1868,0.53322 -0.4084,0.6608 0.97754,2.11262 2.01674,2.11262 1.4772,0 4.3479398,-1.51434 5.6859598,-2.99936 2.1677,-2.40588 5.26438,-11.24002 5.26438,-15.01814 0,-0.85892 0.21334,-1.56168 0.4741,-1.56168 0.44076,0 0.77844,-2.88912 1.37612,-11.77396 0.1434,-2.1323 0.0322,-3.57186 -0.2758,-3.57186 -0.28384,0 -0.51608,0.24992 -0.51608,0.5554 0,0.30546 -0.83344,1.41354 -1.85208,2.46242 -1.01866,1.04886 -1.8521,2.22768 -1.8521,2.6196 0,0.39192 -0.23812,0.71258 -0.52916,0.71258 -0.29104,0 -0.52916,0.31334 -0.52916,0.6963 0,0.38298 -0.93434,1.22144 -2.0763,1.86326 -1.1419598,0.6418 -2.1539798,1.35702 -2.2489598,1.58934 -0.24258,0.59346 -6.61462,4.84692 -7.26108,4.84692 -0.29256,0 -0.72234,0.3103 -0.95508,0.68954 -0.90018,1.46684 -5.61302,2.72786 -10.47734,2.80348 -5.52098,0.0858 -6.62948,-0.22042 -7.64126,-2.11098 -0.90632,-1.69346 -1.8271,-1.82652 -1.32448,-0.1914 0.492,1.60064 0.118,1.1478 -1.54524,-1.87086 -2.06434,-3.74664 -1.90074,-6.20452 0.58912,-8.85072 1.0914,-1.15994 2.38124,-2.10936 2.86632,-2.10986 0.48506,-4.6e-4 0.96906,-0.26224 1.07556,-0.58172 0.1064,-0.31948 1.81434,-0.71096 3.79524,-0.86998 3.39784,-0.27274 3.67558,-0.20934 4.90876,1.1206 2.21628,2.39016 2.58508,4.24692 1.26712,6.37944 -1.3319,2.15508 -2.27112,2.53174 -4.78488,1.91896 l -1.85208,-0.4515 2.1881,-0.0542 c 1.70202,-0.0422 2.37628,-0.34138 3.03528,-1.34714 0.7812,-1.19226 0.77564,-1.41868 -0.0714,-2.90706 -0.90826,-1.59592 -1.90666,-2.06158 -2.46904,-1.15162 -0.1594,0.25804 -1.10252,0.62162 -2.09564,0.80792 -1.75862,0.32992 -1.79834,0.39354 -1.52368,2.44124 0.23402,1.74476 0.1272,2.1025 -0.62794,2.1025 -0.7767,0 -0.85488,-0.3293 -0.53402,-2.24896 0.34976,-2.09256 0.75586,-2.71696 2.09836,-3.22624 0.29104,-0.1104 0.38714,-0.35554 0.21354,-0.54472 -0.78372,-0.85412 -4.10052,1.30554 -5.17704,3.37092 -1.38988,2.66654 -1.39874,3.29278 -0.0636,4.50108 0.58208,0.52678 1.05832,1.25028 1.05832,1.6078 0,0.7696 2.05344,1.40756 2.86996,0.89164 0.3133,-0.198 1.93794,-0.28368 3.6103,-0.1904 2.56248,0.1428 3.09736,0.016 3.401,-0.80518 0.46408,-1.25534 1.21148,-1.75018 2.6587,-1.76026 1.50148,-0.01 10.78286,-4.8078 10.42424,-5.38806 -0.1498,-0.24248 0.0414,-0.44088 0.4252,-0.44088 0.38374,0 0.99512,-0.47624 1.35864,-1.05834 0.36352,-0.58208 0.95658,-1.05942 1.31792,-1.06078 0.36132,-0.002 1.3796798,-0.67994 2.2629798,-1.50798 0.88332,-0.82806 2.13348,-1.78784 2.77814,-2.13284 2.30288,-1.23248 0.9683,-2.00378 -4.22248,-2.44036 -3.7594198,-0.3162 -9.5714598,-1.32938 -11.4353598,-1.9935 -1.44298,-0.51412 -1.8449,-0.48698 -2.29888,0.1552 -0.4539,0.642 -0.49804,0.61614 -0.2523,-0.1478 0.20754,-0.64516 0.014,-0.92604 -0.638,-0.92604 -0.51474,0 -1.1621,-0.20302 -1.4386,-0.45116 -0.27648,-0.24812 -1.65486,-0.76122 -3.06306,-1.1402 -1.40818,-0.37898 -3.38658,-1.24976 -4.39644,-1.93508 -1.00986,-0.6853 -2.74536,-1.70988 -3.85668,-2.27682 -2.13126,-1.0873 -2.68028,-1.91908 -2.68028,-4.06084 0,-0.73916 -0.23078,-1.16822 -0.52916,-0.98382 -0.29834,0.1844 -0.52916,-0.24438 -0.52916,-0.983 0,-0.72052 0.29766,-1.43082 0.66146,-1.57844 0.49806,-0.2021 0.46538,-0.40908 -0.1324,-0.83786 -0.70556,-0.50618 -0.70556,-0.62824 0,-1.09862 0.66834,-0.44556 0.67796,-0.60378 0.0608,-1.00144 -0.59166,-0.38124 -0.52856,-0.58168 0.3273,-1.03972 0.58312,-0.31208 1.2091,-0.41856 1.39104,-0.23662 0.182,0.182 0.77696,-0.1836 1.32228,-0.81238 0.8525,-0.98294 1.55138,-1.14316 4.98634,-1.14316 2.4888,0 4.06968,0.22442 4.1933,0.5953 0.1092,0.32742 0.78384,0.59902 1.49932,0.60352 1.5864,0.01 4.74044,3.62264 4.74044,5.4297 0,1.9314 -0.5582,2.89648 -1.67534,2.89648 -0.59092,0 -0.88504,-0.23932 -0.68732,-0.55924 0.67394,-1.09046 -0.32118,-3.13742 -1.92956,-3.96914 -1.17538,-0.6078 -1.5581,-1.12252 -1.36988,-1.84226 0.28138,-1.07602 -0.99382,-2.51404 -1.62672,-1.83442 -0.21126,0.22684 -0.0864,0.51876 0.27736,0.64868 0.3638,0.13 0.66146,0.51404 0.66146,0.8536 0,0.41612 -1.30862,0.61736 -4.01456,0.61736 -3.74264,0 -4.10108,0.1006 -5.29166,1.48472 -0.70242,0.81658 -1.2771,2.08954 -1.2771,2.82876 0,1.7102 1.5318,4.32878 2.76032,4.71868 0.51912,0.1648 0.94384,0.49584 0.94384,0.73572 0,0.23988 0.59532,0.58554 1.32292,0.76816 0.7276,0.1826 1.32292,0.5467 1.32292,0.80908 0,0.26236 0.7739,0.64252 1.71978,0.84476 0.94588,0.20226 1.95792,0.55728 2.24896,0.78896 0.29104,0.23166 1.83886,0.9185 3.43958,1.52632 3.40962,1.29468 8.48976,1.92144 14.93342,1.8424 2.7737998,-0.034 4.4914798,0.1426 4.3058998,0.44298 -0.1698,0.27476 -0.73178,0.38896 -1.2488,0.25376 -0.517,-0.1352 -1.26404,-0.0406 -1.66006,0.21038 -0.4813,0.30494 -0.018,0.48668 1.39662,0.54814 4.27534,0.1858 5.06988,-0.1086 3.77884,-1.39958 -0.46478,-0.46478 -1.02892,-1.1394 -1.25362,-1.49914 -0.2247,-0.35976 -1.59916,-1.58488 -3.05438,-2.72254 -3.9691998,-3.10302 -6.6037798,-5.68552 -6.3005998,-6.17608 0.1486,-0.2404 -0.0994,-0.2953 -0.55108,-0.122 -0.45168,0.1734 -0.82124,0.098 -0.82124,-0.1672 0,-0.26532 -0.8155,-1.37272 -1.81224,-2.46088 -1.4829,-1.61896 -1.6076,-1.91356 -0.68614,-1.6211 1.05874,0.33602 1.07244,0.30374 0.2288,-0.5399 -0.49352,-0.49352 -1.13724,-0.749 -1.43052,-0.56774 -0.3138,0.194 -0.53322,-0.33656 -0.53322,-1.28918 0,-0.8903 -0.23814,-1.61874 -0.52918,-1.61874 -0.29104,0 -0.52916,0.25218 -0.52916,0.5604 0,0.30822 -0.26354,0.39752 -0.58566,0.1984 -0.42488,-0.26258 -0.41996,-0.46438 0.018,-0.735 0.83152,-0.5139 0.0762,-2.26816 -0.82736,-1.92144 -0.55348,0.21238 -0.71602,-0.25882 -0.67402,-1.95396 0.0304,-1.22862 -0.1954,-3.50754 -0.50166,-5.06428 -0.6455,-3.28026 -0.014,-7.68188 1.31322,-9.14804 0.46764,-0.51674 1.89734,-1.09656 3.17708,-1.28848 1.27976,-0.192 2.45552,-0.55714 2.6128,-0.81164 0.1574,-0.2545 0.79458,0.012 1.4162,0.59022 0.6216,0.57912 1.5716,1.05296 2.1111,1.05296 0.53948,0 1.26848,0.23452 1.62,0.52118 0.35152,0.28666 1.4203998,1.14746 2.3752798,1.9129 1.27526,1.02224 1.66286,1.69162 1.4601,2.52152 -0.1518,0.6214 -0.136,0.82222 0.035,0.44626 0.23886,-0.52472 0.4836,-0.5404 1.05344,-0.0674 0.84194,0.69876 1.02352,4.7198 0.21312,4.7198 -0.29104,0 -0.5327,0.29766 -0.53704,0.66146 -0.004,0.3638 -0.77824,1.56334 -1.71978,2.66566 -2.1700198,2.5405 -5.1716598,3.23964 -6.7295598,1.56742 -0.61218,-0.6571 -0.90596,-1.5569 -0.75818,-2.3222 0.21592,-1.11806 0.1904,-1.13814 -0.24194,-0.191 -0.43578,0.95442 -0.5194,0.9699 -0.8515,0.1576 -0.20256,-0.49538 -0.1976,-1.17686 0.012,-1.51436 0.2086,-0.33752 0.1202,-0.77378 -0.1964,-0.96944 -1.06678,-0.6593 1.6145,-3.09558 3.74734,-3.4049 1.64164,-0.2381 1.98438,-0.1292 1.98438,0.631 0,0.73848 -0.36352,0.87636 -1.8521,0.70258 -1.40204,-0.1636 -1.85208,-0.02 -1.85208,0.59134 0,0.44414 -0.29766,0.92764 -0.66146,1.07444 -0.5087,0.20528 -0.5015,0.27656 0.0312,0.30868 0.38098,0.023 0.5697,0.24078 0.41938,0.484 -0.1504,0.24322 -0.0942,1.11186 0.1246,1.93034 0.33038,1.23532 0.73112,1.5223 2.35876,1.68928 1.49384,0.1532 1.96074,0.008 1.96074,-0.60742 0,-0.44472 0.28576,-0.80858 0.635,-0.80858 0.4938998,0 0.4938998,-0.1412 0,-0.635 -0.34924,-0.34926 -0.635,-1.5875 -0.635,-2.75168 0,-1.59888 0.1494,-1.96734 0.6104,-1.50626 0.3357198,0.33572 0.5896398,1.34012 0.5642798,2.23202 -0.029,1.01646 0.1632,1.49224 0.51486,1.27494 0.98818,-0.61074 0.157,-6.2925 -1.1051798,-7.55468 -0.61244,-0.61244 -1.11352,-1.00212 -1.11352,-0.86598 0,0.1362 -0.46204,0.0766 -1.02676,-0.1322 -0.56472,-0.2089 -1.02758,-0.59804 -1.02856,-0.86476 -10e-4,-0.26672 -0.97258,-0.81308 -2.15906,-1.21416 -1.92436,-0.6505 -2.32562,-0.62974 -3.71712,0.1922 -2.16464,1.27868 -2.56798,4.24036 -1.2698,9.32404 0.53714,2.10346 1.24794,4.06262 1.57958,4.35366 0.33164,0.29104 0.93064,1.30308 1.3311,2.24896 0.40048,0.94588 0.90812,1.71978 1.12812,1.71978 0.22,0 0.4,0.36514 0.4,0.8114 0,0.44626 0.83344,1.64482 1.85208,2.66346 1.01864,1.01866 1.85208,2.1853 1.85208,2.59254 0,0.40726 0.41672,0.8752 0.92604,1.0399 0.50932,0.1646 1.4989598,1.14264 2.1991998,2.17322 0.70024,1.03058 2.24806,2.63154 3.43958,3.55768 1.19154,0.92614 2.55822,2.11504 3.03706,2.642 0.81878,0.90106 0.89268,0.73842 1.24118,-2.73184 0.2038199,-2.02948 0.2529999,-3.88262 0.1094,-4.11812 -0.7337599,-1.20252 3.2319001,-14.91246 4.7649601,-16.47324 0.37776,-0.38458 0.68684,-1.03136 0.68684,-1.43726 0,-1.43704 1.73556,-4.38802 2.4251,-4.12342 0.44964,0.1726 0.80766,-0.38914 1.04108,-1.63334 0.46926,-2.50126 1.1024,-2.41672 1.2034,0.1606 0.0494,1.26006 -0.22454,2.31022 -0.707,2.71064 -0.5469,0.45388 -0.7876,0.47212 -0.7876,0.0596 0,-0.32668 -0.26728,-0.59396 -0.59396,-0.59396 -0.43066,0 -0.42576,0.20268 0.018,0.73714 0.47864,0.57672 0.26648,1.29644 -0.97486,3.3073 -2.5882,4.19262 -3.29874,6.0901 -3.60336,9.62258 -0.1588,1.84156 -0.45084,3.08602 -0.64894,2.76548 -0.1982,-0.32054 -0.26302,2.33992 -0.1442,5.91214 0.27302,8.21224 0.23994,7.81786 0.65596,7.81786 0.80598,0 1.00604,-0.74832 0.39644,-1.48284 -0.55416,-0.66772 -0.47356,-0.72962 0.53376,-0.4099 0.65256,0.2071 1.18646,0.1768 1.18646,-0.0676 0,-0.24428 1.01204,-1.44328 2.24896,-2.66446 3.54812,-3.50292 4.5870401,-4.37104 5.2309801,-4.37104 0.33042,0 1.1207,-0.53578 1.75616,-1.19064 1.22006,-1.25728 4.23902,-3.0427 5.14488,-3.0427 0.29528,0 1.21298,-0.48142 2.03932,-1.06982 0.826342,-0.5884 1.696542,-1.0216 1.933762,-0.96268 0.23724,0.059 1.72474,-0.29308 3.30552,-0.78226 5.0244,-1.5548 8.45868,-1.10344 11.38014,1.49566 1.6093,1.4317 1.97764,2.12758 2.00378,3.78558 0.0968,6.13982 -6.1101,10.38028 -11.82172,8.07636 -2.1673,-0.87424 -3.58686,-4.40146 -2.4159,-6.00284 1.60756,-2.19848 7.27466,-2.74648 7.66112,-0.74082 0.1288,0.66844 -0.3074,0.76806 -2.4582,0.56138 -2.33748,-0.2246 -2.65382,-0.1282 -2.98276,0.9081 -0.5616,1.7695 0.63768,4.10452 2.2682,4.41622 1.7218,0.32914 5.34618,-1.05944 6.57086,-2.51746 2.165,-2.57744 2.2691,-7.16742 0.1626,-7.16742 -0.44376,0 -0.80686,-0.33928 -0.80686,-0.75394 0,-0.56822 -0.6192,-0.71614 -2.51354,-0.60044 -2.78842,0.1702 -5.54694,0.79524 -5.95312,1.3487 -0.30946,0.42168 -4.27026,1.57638 -6.746882,1.96694 -0.94588,0.1492 -1.71978,0.44516 -1.71978,0.65776 0,0.21262 -0.97068,0.70694 -2.15704,1.09848 -1.50566,0.4969 -3.76522,2.28446 -7.4825201,5.91952 -2.92902,2.86422 -5.212,5.32114 -5.07328,5.45986 0.1386,0.1388 3.20818,0.33574 6.8210601,0.43786 5.74132,0.1622 7.20216,0.40246 11.595942,1.90652 2.7649,0.94648 5.97958,2.20182 7.14376,2.78966 1.16416,0.58784 2.53014,1.27698 3.03552,1.53144 0.50538,0.25446 1.4124,0.46264 2.0156,0.46264 0.60322,0 0.95126,0.2354 0.77346,0.5231 -0.1854,0.29998 0.027,0.38868 0.49792,0.20798 0.45168,-0.1734 1.21498,-0.164 1.69622,0.0206 0.79404,0.3047 0.7849,0.40162 -0.099,1.04788 -0.93896,0.68658 -0.93612,0.72412 0.0792,1.04638 1.39396,0.44242 3.37936,4.6154 3.37328,7.09006 -0.006,2.49864 -1.96234,6.57574 -3.87806,8.08266 -1.21786,0.95796 -1.94792,1.11416 -4.19728,0.89802 -1.49766,-0.144 -2.81244,-0.52996 -2.92176,-0.85792 -0.1094,-0.32798 -0.49966,-0.5963 -0.86744,-0.5963 -0.9411,0 -2.51836,-1.49554 -4.17566,-3.9593 -1.82682,-2.71578 -1.85854,-5.29142 -0.0946,-7.68236 0.7276,-0.98622 1.3229,-2.10404 1.3229,-2.48406 0,-1.32658 5.13312,-0.32402 5.25888,1.02712 0.0202,0.21732 0.55338,0.98928 1.18478,1.71546 1.4298,1.6444 1.57232,3.89634 0.32552,5.14314 -1.24396,1.24396 -1.20216,2.00666 0.11,2.00666 0.58208,0 1.05832,-0.24266 1.05832,-0.53924 0,-0.30842 0.55644,-0.3996 1.2999,-0.213 1.08774,0.273 1.35736,0.0972 1.65208,-1.07698 0.67856,-2.70358 -0.1296,-5.19934 -2.32062,-7.1666 -1.8698,-1.67888 -7.24242,-4.1961 -12.39794,-5.80878 -1.08736,-0.34014 -2.119422,-0.84888 -2.293502,-1.13052 -0.174,-0.28166 -0.79018,-0.36174 -1.36914,-0.178 -0.69662,0.2211 -1.29356,0.004 -1.7649,-0.63994 -0.58006,-0.79328 -1.43208,-0.97334 -4.59134,-0.97028 -2.1335201,0.002 -4.3126201,0.1796 -4.8424601,0.39458 -0.86518,0.351 -0.75732,0.64722 1.05834,2.90666 1.11192,1.38372 2.2733801,2.75396 2.5810401,3.045 0.8314,0.78652 3.40938,4.3777 3.40938,4.74932 0,0.1772 0.4628,0.81878 1.02844,1.42592 1.17448,1.26066 3.53456,6.04474 4.06,8.23002 0.1944,0.80836 0.76558,2.30318 1.26934,3.32182 1.574842,3.1845 2.009362,11.91562 0.470242,9.44922 -0.26322,-0.42182 -0.31652,0.1006 -0.1292,1.26642 0.30546,1.90122 0.25496,1.98612 -1.205622,2.02614 -0.83844,0.023 -1.2268,0.1618 -0.86298,0.30868 1.12878,0.45548 0.72606,1.46104 -0.97228,2.42768 -1.80964,1.02996 -1.71498,1.0233 -3.92252,0.27618 z m 4.3546,-1.25736 c -0.1758,-0.1758 -0.63224,-0.1946 -1.01424,-0.0418 -0.42212,0.169 -0.29674,0.2943 0.31972,0.3197 0.55782,0.023 0.87036,-0.102 0.69452,-0.27794 z m -9.3816802,-7.08862 c 0,-0.29104 -0.23812,-0.52916 -0.52918,-0.52916 -0.29104,0 -0.52916,0.23812 -0.52916,0.52916 0,0.29104 0.23812,0.52916 0.52916,0.52916 0.29106,0 0.52918,-0.23812 0.52918,-0.52916 z m 3.3650002,-2.03426 c 0.80514,-0.88966 0.81176,-1.14688 0.075,-2.9104 -0.44456,-1.06398 -1.01672,-1.9345 -1.27146,-1.9345 -0.63094,0 -1.2447602,3.50466 -0.8382,4.78562 0.40984,1.29134 0.90664,1.30582 2.03474,0.0592 z m 23.04924,-7.82552 c 0.49584,-0.43714 -0.3317,-0.55948 -2.20486,-0.32598 -1.09142,0.136 -1.98438,0.47024 -1.98438,0.74264 0,0.4429 3.62298,0.0826 4.18924,-0.41666 z m -18.76548,-4.13928 c -0.4896,-1.03176 -1.10118,-1.87594 -1.35906,-1.87594 -0.25788,0 -0.46888,-0.34314 -0.46888,-0.76252 0,-0.41938 -0.2374,-0.90924 -0.52756,-1.08858 -0.75028,-0.4637 0.30678,2.17142 1.59908,3.98628 0.57484,0.80728 1.06396,1.7882 1.08694,2.17984 0.0294,0.50282 0.1178,0.5247 0.30072,0.0744 0.1424,-0.35068 -0.1416,-1.48178 -0.63124,-2.51354 z m 21.4473,1.69594 c -0.006,-0.9628 -0.1062,-1.03874 -0.52106,-0.39688 -0.663,1.02592 -0.663,1.5875 0,1.5875 0.29104,0 0.52552,-0.53578 0.52106,-1.19062 z m -5.81274,0.4281 c 0,-0.1284 -0.23812,-0.38052 -0.52916,-0.5604 -0.29104,-0.1798 -0.52916,-0.0748 -0.52916,0.23336 0,0.30822 0.23812,0.5604 0.52916,0.5604 0.29104,0 0.52916,-0.105 0.52916,-0.23336 z m -1.85208,-0.82498 c -0.1798,-0.29104 -0.56516,-0.52916 -0.8562,-0.52916 -0.29104,0 -0.382,0.23812 -0.20212,0.52916 0.1798,0.29104 0.56516,0.52916 0.8562,0.52916 0.29104,0 0.382,-0.23812 0.20212,-0.52916 z m -56.8854,-0.54074 c 0.54334,-0.35906 -0.20784,-0.41678 -2.38126,-0.183 -1.74624,0.1878 -3.27422,0.42754 -3.39548,0.53264 -0.53116,0.46034 5.06346,0.1218 5.77674,-0.34966 z m 57.5847,-3.29572 c -0.1918,-3.13348 -1.43292,-4.47802 -3.14588,-3.40826 -0.83938,0.52418 -0.8518,0.73906 -0.142,2.4544 0.63308,1.52984 2.52208,3.66726 3.28786,3.72022 0.0936,0.006 0.0936,-1.23838 0,-2.76636 z m -50.48476,1.1435 c 0.82488,-0.76026 -1.25594,-1.19164 -2.66066,-0.5516 -0.72274,0.3293 -1.95772,0.60238 -2.74438,0.60682 -0.99272,0.006 -1.21284,0.146 -0.71952,0.45862 0.82944,0.52568 5.414,0.141 6.12456,-0.51384 z m -3.60454,-1.91626 c -0.0562,-0.0612 -0.64754,0.0314 -1.31428,0.2057 -0.82944,0.2169 -1.00622,0.44436 -0.5598,0.72026 0.5255,0.32478 2.2428,-0.5237 1.87408,-0.92596 z m 6.0296,0.37588 c 0,-0.29104 -0.47626,-0.52916 -1.05834,-0.52916 -0.58208,0 -1.05832,0.23812 -1.05832,0.52916 0,0.29104 0.47624,0.52918 1.05832,0.52918 0.58208,0 1.05834,-0.23814 1.05834,-0.52918 z m 2.42072,-2.18054 c 0.1582,-0.2559 0.64772,-0.46528 1.08788,-0.46528 0.96798,0 2.57242,-1.5037 2.10414,-1.97198 -0.1838,-0.1838 -1.0359,0.1848 -1.89366,0.81894 -0.85776,0.63418 -1.77818,1.15304 -2.04536,1.15304 -0.2672,0 -0.7667,0.33844 -1.11,0.75212 -0.51252,0.61754 -0.42794,0.70078 0.47262,0.46528 0.60324,-0.1578 1.22622,-0.4962 1.38438,-0.75212 z m 52.36534,-2.9048 c -1.2235,-1.22352 -1.61012,-0.53362 -0.4562,0.81406 0.5279,0.61654 1.04032,0.87944 1.13874,0.5842 0.0984,-0.29524 -0.20874,-0.92446 -0.68254,-1.39826 z m -26.23532,0.27752 c -0.32486,-0.607 -0.72436,-0.96994 -0.88778,-0.80652 -0.1634,0.1634 0.004,0.66004 0.37224,1.10364 0.95136,1.1463 1.20866,0.998 0.51554,-0.29712 z m 17.48674,-1.013 c 0,-0.29104 -0.23812,-0.52918 -0.52916,-0.52918 -0.29104,0 -0.52916,0.23814 -0.52916,0.52918 0,0.29104 0.23812,0.52916 0.52916,0.52916 0.29104,0 0.52916,-0.23812 0.52916,-0.52916 z m -36.9358202,-1.16418 c -0.49388,-0.49388 -0.7761,-0.49388 -1.27,0 -0.49388,0.4939 -0.35278,0.635 0.635,0.635 0.98778,0 1.1289,-0.1412 0.635,-0.635 z m 17.19288,-0.6627 c -1.20702,-1.20702 -1.7491,-0.99726 -0.62704,0.24262 0.5284,0.58386 1.0699,0.9524 1.20334,0.81894 0.1334,-0.1334 -0.1258,-0.61114 -0.5763,-1.06156 z m -16.24038,-0.81896 c 0,-0.29104 -0.105,-0.52916 -0.23334,-0.52916 -0.1284,0 -0.38054,0.23812 -0.5604,0.52916 -0.1798,0.29104 -0.0748,0.52916 0.23334,0.52916 0.30822,0 0.5604,-0.23812 0.5604,-0.52916 z m 14.81666,-0.76252 c 0,-0.1284 -0.23812,-0.38052 -0.52916,-0.5604 -0.29104,-0.1798 -0.52918,-0.0748 -0.52918,0.23336 0,0.30822 0.23814,0.5604 0.52918,0.5604 0.29104,0 0.52916,-0.105 0.52916,-0.23336 z m -8.6453601,-12.06978 c -0.1468,-0.3638 -0.26692,-0.0662 -0.26692,0.66146 0,0.72762 0.1202,1.02526 0.26692,0.66146 0.1468,-0.3638 0.1468,-0.9591 0,-1.32292 z M -24.586726,278.60365 c -0.48508,-0.48506 -1.04884,-0.71506 -1.2528,-0.5111 -0.20396,0.20396 0.0876,0.7061 0.64804,1.11586 1.3197,0.965 1.7471,0.5376 0.60476,-0.60476 z m 19.8138998,53.82382 c 0,-0.7276 0.12,-1.02526 0.2669,-0.66146 0.1468,0.3638 0.1468,0.95912 0,1.32292 -0.1468,0.3638 -0.2669,0.0662 -0.2669,-0.66146 z m -9.0793798,0 c 0,-0.29104 0.22406,-0.52918 0.49794,-0.52918 0.27386,0 0.6451,0.23814 0.82498,0.52918 0.1798,0.29104 -0.0442,0.52916 -0.49794,0.52916 -0.45374,0 -0.82498,-0.23812 -0.82498,-0.52916 z m -1.5875,-1.08956 c 0,-0.30822 0.23812,-0.41324 0.52916,-0.23336 0.29104,0.1798 0.52918,0.43206 0.52918,0.5604 0,0.1284 -0.23814,0.23334 -0.52918,0.23334 -0.29104,0 -0.52916,-0.25218 -0.52916,-0.56038 z m 50.5354,-17.96044 c -0.1798,-0.29104 -0.0748,-0.52918 0.23336,-0.52918 0.30822,0 0.5604,0.23814 0.5604,0.52918 0,0.29104 -0.105,0.52916 -0.23336,0.52916 -0.1284,0 -0.38052,-0.23812 -0.5604,-0.52916 z m -61.7802,-27.14594 c -1.98134,-0.78294 -1.8433,-1.63898 0.1984,-1.23062 0.90952,0.1818 1.86202,0.33072 2.11668,0.33072 0.25466,0 0.46302,0.35718 0.46302,0.79376 0,0.90366 -0.69282,0.93014 -2.77814,0.1062 z m -6.14564,-3.65716 c 0.0468,-1.4764 0.158,-1.8074 0.31794,-0.9469 0.1352,0.7276 0.43362,1.44198 0.66312,1.5875 0.2295,0.1456 0.0864,0.57162 -0.31794,0.9469 -0.61984,0.57526 -0.72388,0.32618 -0.66312,-1.5875 z m 2.44148,-1.82652 c 0.3638,-0.1468 0.95912,-0.1468 1.32292,0 0.3638,0.1468 0.0662,0.2669 -0.66146,0.2669 -0.7276,0 -1.02526,-0.1202 -0.66146,-0.2669 z m 41.93644,-8.11622 c 0,-0.29104 -0.26972,-0.52916 -0.59938,-0.52916 -0.85854,0 -2.5756202,-2.11644 -2.5756202,-3.17468 0,-1.79756 1.6264,-4.14368 3.2696202,-4.71652 2.47322,-0.86216 3.45168,-0.70398 3.8052,0.61516 0.56964,2.1256 0.31046,2.8137 -0.49832,1.3229 -0.92244,-1.70032 -0.79746,-1.67304 -3.1539,-0.68846 -1.78396,0.74538 -2.0978602,1.38144 -1.8414802,3.73118 0.1626002,1.49058 1.0408602,1.92268 3.1813802,1.56524 2.43018,-0.40582 4.79654,-2.83906 4.41918,-4.5441 -0.1982,-0.89514 -0.1324,-1.04966 0.2295,-0.5394 0.37604,0.53022 0.57292,0.26686 0.76162,-1.01888 0.32076,-2.18544 -0.59106,-5.25244 -1.56156,-5.25244 -0.4049,0 -0.58902,-0.23814 -0.40914,-0.52918 0.1974,-0.31958 -0.52368,-0.52916 -1.82086,-0.52916 -1.18134,0 -2.1479,0.23812 -2.1479,0.52916 0,0.5962 -1.74614,0.72332 -2.30186,0.1676 -0.6092402,-0.60922 2.81714,-1.75508 5.24814,-1.75508 3.15846,0 4.9249,0.93358 5.82004,3.07596 0.90614,2.16872 0.99422,6.59048 0.1634,8.20362 -0.89234,1.73258 -2.67376,3.54144 -3.17974,3.22872 -0.2454,-0.1516 -0.30438,0.0938 -0.131,0.54548 0.26522,0.69112 -0.23872,0.82122 -3.18106,0.82122 -1.97802,0 -3.4962,-0.22978 -3.4962,-0.52916 z m 6.63062,-3.07078 c -0.35556,-0.35556 -1.86812,0.96426 -1.86812,1.63008 0,0.30052 0.47772,0.114 1.06158,-0.41432 0.58388,-0.5284 0.94682,-1.07548 0.80654,-1.21576 z m 1.2047,-2.49948 c -0.163,-0.163 -0.45882,0.1308 -0.65754,0.65264 -0.28716,0.75418 -0.22638,0.81496 0.29622,0.29624 0.36164,-0.35896 0.52424,-0.78594 0.36132,-0.94888 z m -39.05614,-6.60058 c 0,-0.29104 0.23812,-0.52916 0.52918,-0.52916 0.29104,0 0.52916,0.23812 0.52916,0.52916 0,0.29104 -0.23812,0.52918 -0.52916,0.52918 -0.29106,0 -0.52918,-0.23814 -0.52918,-0.52918 z"
       id="path5948" /></g></svg>
