<?xml version="1.0" encoding="UTF-8" standalone="no"?>
<svg
   xmlns:dc="http://purl.org/dc/elements/1.1/"
   xmlns:cc="http://creativecommons.org/ns#"
   xmlns:rdf="http://www.w3.org/1999/02/22-rdf-syntax-ns#"
   xmlns:svg="http://www.w3.org/2000/svg"
   xmlns="http://www.w3.org/2000/svg"
   xmlns:sodipodi="http://sodipodi.sourceforge.net/DTD/sodipodi-0.dtd"
   xmlns:inkscape="http://www.inkscape.org/namespaces/inkscape"
   width="164.52655mm"
   height="164.52693mm"
   viewBox="0 0 164.52655 164.52693"
   version="1.1"
   id="svg8"
   inkscape:version="1.0.2 (e86c870879, 2021-01-15)"
   sodipodi:docname="kudeta.svg"
   inkscape:export-xdpi="10.1"
   inkscape:export-ydpi="10.1">
  <defs
     id="defs2" />
  <sodipodi:namedview
     id="base"
     pagecolor="#e1e1e1"
     bordercolor="#666666"
     borderopacity="1.0"
  />
  <g
     inkscape:label="Layer 1"
     inkscape:groupmode="layer"
     id="layer1"
     transform="translate(-30.005928,-12.786644)">
    <circle
       style="fill:#ffffff;fill-opacity:1;stroke:none;stroke-width:3.56669;stroke-linecap:square;stroke-linejoin:round;stroke-miterlimit:4;stroke-dasharray:none;stroke-dashoffset:0;stroke-opacity:1;paint-order:markers fill stroke"
       id="path2806"
       sodipodi:type="arc"
       sodipodi:cx="112.2692"
       sodipodi:cy="95.05011"
       sodipodi:rx="82.263275"
       sodipodi:ry="82.263466"
       sodipodi:start="0.21843637"
       sodipodi:end="0.21600193"
       sodipodi:arc-type="slice"
       d="M 192.5777,112.87688 A 82.263275,82.263466 0 0 1 94.49135,175.36962 82.263275,82.263466 0 0 1 31.939071,77.321102 82.263275,82.263466 0 0 1 129.94928,14.709016 82.263275,82.263466 0 0 1 192.62086,112.68132 L 112.2692,95.05011 Z"
       inkscape:export-xdpi="5.5599999"
       inkscape:export-ydpi="5.5599999" />
    <path
       id="path1020"
       style="fill:none;fill-opacity:1;stroke:#800000;stroke-width:3;stroke-linecap:square;stroke-miterlimit:4;stroke-dasharray:none;stroke-opacity:1"
       d="m 72.301282,68.95604 c -4.174508,3.795816 -8.520308,8.197231 -12.808521,15.116905 2.231795,2.36265 4.482272,4.78264 6.748944,7.237802 L 77.881302,79.663913 c -2.133324,-4.292037 -4.08188,-8.076599 -5.58002,-10.707873 z m 7.836731,15.295189 -10.617438,10.624675 c 3.060618,3.340065 6.166757,6.759816 9.311576,10.224696 l 7.255886,-8.483201 c -1.95357,-4.094858 -3.982768,-8.334279 -5.950024,-12.36617 z m 8.229989,17.144691 -6.256983,7.31531 c 2.954991,3.25507 5.942216,6.54223 8.992732,9.87278 0.729665,-2.89941 1.189371,-4.70953 2.016416,-7.26673 -1.321562,-2.72116 -2.983682,-6.20881 -4.752165,-9.92136 z" />
    <path
       id="path1014"
       style="fill:none;fill-opacity:1;stroke:#800000;stroke-width:3;stroke-miterlimit:4;stroke-dasharray:none;stroke-opacity:1"
       d="m 53.611468,95.704793 c -0.85711,4.868717 -1.883302,12.230447 -1.193726,17.808727 4.129069,1.55837 3.75108,1.51198 8.186063,3.21066 0.02458,0.009 0.03689,0.0143 0.0615,0.0238 l 2.474267,-13.88391 c -3.664749,-2.84681 -5.20341,-3.898324 -9.528101,-7.15925 z m 13.847733,10.501687 -2.193666,12.31139 c 2.560876,0.97671 5.116515,1.96646 7.671885,2.95744 l 3.031339,-8.42067 c -2.719514,-2.26122 -5.460278,-4.48656 -8.509558,-6.84816 z m 12.458155,10.16733 -2.466002,6.85023 2.593126,1.00201 c 1.20278,0.0275 3.986464,0.13352 8.473464,-0.0287 -3.09132,-2.60788 -5.965473,-5.59382 -8.600588,-7.82353 z"
       sodipodi:nodetypes="ccsccccccccccccc" />
    <path
       id="path1008"
       style="fill:none;fill-opacity:1;stroke:#800000;stroke-width:3;stroke-miterlimit:4;stroke-dasharray:none;stroke-opacity:1"
       d="m 53.688983,123.0194 c 1.214935,4.22491 5.756214,13.52656 6.885577,15.13481 4.660688,-0.2013 4.942192,-0.16517 8.208592,-0.46232 l -4.966105,-12.81162 c -6.760548,-1.36155 -6.854049,-1.45946 -10.128064,-1.86087 z m 15.757178,2.99414 4.348054,11.21792 c 4.108897,-0.29144 7.554843,-0.78801 11.77204,-1.37447 -3.949324,-2.99842 -5.915004,-5.48576 -9.755108,-8.56085 z"
       sodipodi:nodetypes="cccccccccc" />
    <path
       id="path1004"
       style="fill:none;fill-opacity:1;stroke:#800000;stroke-width:3;stroke-miterlimit:4;stroke-dasharray:none;stroke-opacity:1"
       d="m 89.876577,139.63006 c -3.287382,0.58211 -6.229136,1.15462 -8.933961,1.88227 l 6.857979,5.70508 3.986837,-2.46135 c 0.35543,-1.22109 0.722947,-1.73613 1.019913,-2.97129 -0.755044,-0.65894 -1.919642,-2.05483 -2.930768,-2.15471 z m -14.644725,3.42636 c -4.293174,1.16678 -8.135159,2.22112 -8.373647,2.31562 3.414218,3.80642 5.903161,5.49609 9.217525,8.49716 3.755972,-2.04176 4.478893,-2.37866 7.378359,-3.97289 z"
       sodipodi:nodetypes="ccccccccccc" />
    <path
       style="fill:none;fill-opacity:1;stroke:#800000;stroke-width:3;stroke-miterlimit:4;stroke-dasharray:none;stroke-opacity:1"
       d="m 94.571288,160.711 c 1.746632,-6.19801 4.488798,-14.9411 5.689302,-18.93263 -5.54623,-5.03591 -9.916969,-8.28341 -15.204481,-12.84156 6.947707,-0.30406 12.255276,-0.19843 19.748801,-0.19843 2.96516,-6.37549 5.38817,-13.3724 8.05532,-19.9169 3.07399,7.32433 5.35474,13.55639 7.84238,19.7846 6.48919,0.0882 12.97839,0.1764 19.46758,0.26459 -5.65492,4.27547 -11.69292,8.07562 -15.91393,12.42332 0.8577,3.42925 4.98709,15.31532 6.51731,19.44405 -7.12246,-4.95656 -8.88809,-6.0895 -17.56375,-11.03493 -7.28943,4.21602 -14.806034,8.6141 -18.638532,11.00789 z"
       id="path978"
       sodipodi:nodetypes="ccccccccccc" />
    <path
       style="fill:#800000;fill-opacity:1;stroke:#800000;stroke-width:0.264583"
       d="m 100.25805,123.99369 c -0.287107,-0.46454 0.39824,-6.577 1.15557,-10.3063 0.43825,-2.15808 1.27357,-7.73378 1.85627,-12.39045 0.58269,-4.656651 1.29385,-9.849097 1.58035,-11.538752 0.847,-4.995212 0.70435,-5.933504 -1.34728,-8.861618 -3.26411,-4.636428 -5.369021,-7.996935 -8.178593,-12.535406 4.584179,-4.110144 9.074153,-8.955228 12.970853,-12.387024 l 0.93968,-0.809598 c 3.55872,2.845944 8.51312,5.52826 11.47261,8.814744 0.26696,0.321669 0.0681,0.680442 -1.13759,2.052693 -0.8036,0.91459 -1.74127,2.001893 -2.08371,2.416225 -0.58946,0.713203 -0.67954,0.738008 -1.69103,0.46564 -0.58762,-0.158228 -1.73317,-0.753366 -2.54568,-1.322525 -0.8125,-0.569158 -2.03941,-1.364271 -2.72647,-1.766915 l -1.24921,-0.732082 0.16128,-1.542996 c 0.0971,-0.929165 0.0594,-1.542996 -0.0948,-1.542996 -0.14083,0 -0.56886,0.625078 -0.95116,1.389063 -0.81593,1.630507 -1.6215,2.576362 -2.20421,2.588048 -0.91246,0.01831 1.05361,1.265812 3.47124,2.202564 1.37219,0.531683 2.88469,1.254276 3.3611,1.605761 2.06758,1.525411 3.26625,4.140788 3.75611,8.195456 0.15998,1.324208 0.32721,2.445631 0.37161,2.492052 0.21568,0.225486 0.66158,-2.847411 0.66158,-4.559228 0,-3.740616 0.69147,-5.711632 2.00374,-5.711632 0.9993,0 1.41919,0.27732 2.2515,1.487043 l 0.79727,1.15879 c 2.10417,0.330923 10.12559,-1.304154 9.61394,-4.262329 -0.0801,-0.129556 -0.49576,-0.235567 -0.92373,-0.235567 -0.89616,0 -0.92229,-0.0632 -0.37276,-0.901885 0.22296,-0.340275 0.4729,-1.258821 0.55543,-2.041212 l 0.15005,-1.422528 -0.67321,0.79375 c -0.37027,0.436563 -1.30482,1.864575 -2.07678,3.173357 -1.81033,3.06922 -2.06206,3.308935 -3.47488,3.308935 -1.24353,0 -2.84751,-0.88488 -4.23826,-2.338152 -0.92926,-0.971042 -0.82841,-1.394423 0.81186,-3.408231 1.18311,-1.452546 1.19329,-1.481531 0.66673,-1.899233 -1.52692,-1.21124 -8.67484,-7.066285 -10.51486,-8.612986 -1.16416,-0.978586 -2.25894,-1.838613 -2.43284,-1.911171 -0.49386,-0.206059 -2.48659,1.296604 -5.57874,4.206773 l -2.83633,2.669407 c -2.216254,2.29776 -1.11371,1.860131 -2.216254,2.29776 0.141675,-9.631103 1.257834,-24.690287 1.995054,-35.657468 0.0553,-0.814013 5.37408,-0.737012 5.8443,-0.09606 0.97173,7.334745 1.77221,15.556347 2.31898,22.609292 0.0981,1.283637 0.22694,2.285288 0.28634,2.22589 0.0594,-0.0594 0.23038,-0.811989 0.37996,-1.672427 0.14958,-0.860437 0.4558,-2.068288 0.68049,-2.684112 0.35227,-0.96552 0.56058,-1.163766 1.51295,-1.439886 1.41546,-0.410384 4.20686,-0.360605 5.73463,0.102266 1.03217,0.312715 1.23977,0.501525 1.55987,1.418643 0.58106,1.66476 0.21166,3.167428 -1.46049,5.94115 -0.80346,1.33276 -1.40784,2.4762 -1.34306,2.540978 0.0648,0.06478 0.91851,-0.831082 1.89718,-1.9908 0.97866,-1.159718 1.9561,-2.17639 2.17209,-2.25927 0.84429,-0.323985 2.63,-0.12943 3.46069,0.377045 1.25426,0.764735 1.9147,2.000792 1.90924,3.573304 -0.005,1.499881 -0.95917,4.443784 -1.84155,5.682974 -0.98406,1.381984 -0.42299,1.169441 0.85175,-0.32266 1.93282,-2.262388 2.04326,-2.285307 5.44854,-1.130683 l 2.91092,0.987003 0.94866,2.855796 c 0.52176,1.570687 0.94866,3.211044 0.94866,3.645239 0,1.829522 -5.86137,11.187345 -8.9542,14.295591 l -2.02249,2.032574 -0.0946,20.439046 -0.0946,20.43906 h -0.73463 c -0.40404,0 -0.84692,-0.14883 -0.98417,-0.33073 -0.13725,-0.1819 -0.91912,-2.05713 -1.7375,-4.16718 -4.24675,-10.94965 -5.11287,-13.13379 -6.5837,-16.60261 -0.87927,-2.07367 -1.68458,-3.770304 -1.78958,-3.770304 -0.105,0 -1.41088,3.244444 -2.90196,7.209884 -1.49108,3.96545 -3.62846,9.53162 -4.74973,12.36928 l -2.03867,5.15937 -1.22787,0.0797 c -0.67534,0.0438 -1.28816,-0.0179 -1.36184,-0.13708 z"
       id="path1012"
       sodipodi:nodetypes="sssscccccsssssccssssssssssccssscssssssssscccccssssssssssscssscssscccsscssssccss" />
    <path
       id="path1020-2"
       style="fill:none;fill-opacity:1;stroke:#800000;stroke-width:3;stroke-linecap:square;stroke-miterlimit:4;stroke-dasharray:none;stroke-opacity:1"
       d="m 151.70118,68.889559 c 4.1745,3.79581 8.5203,8.19723 12.80852,15.1169 -2.2318,2.36265 -4.48228,4.78264 -6.74895,7.2378 l -11.63959,-11.64683 c 2.13332,-4.29204 4.08188,-8.0766 5.58002,-10.70787 z m -7.83674,15.29519 10.61744,10.62467 c -3.06062,3.34007 -6.16675,6.759811 -9.31157,10.224691 l -7.25589,-8.483191 c 1.95357,-4.09486 3.98277,-8.33428 5.95002,-12.36617 z m -8.22998,17.144681 6.25698,7.31531 c -2.95499,3.25507 -5.94222,6.54223 -8.99273,9.87278 -0.72967,-2.89941 -1.18937,-4.70953 -2.01642,-7.26673 1.32156,-2.72116 2.98368,-6.20881 4.75217,-9.92136 z" />
    <path
       id="path1014-6"
       style="fill:none;fill-opacity:1;stroke:#800000;stroke-width:3;stroke-miterlimit:4;stroke-dasharray:none;stroke-opacity:1"
       d="m 170.39099,95.638309 c 0.85711,4.868711 1.8833,12.230441 1.19373,17.808721 -4.12907,1.55837 -3.75108,1.51198 -8.18607,3.21066 -0.0246,0.009 -0.0369,0.0143 -0.0615,0.0238 l -2.47426,-13.88391 c 3.66474,-2.846807 5.2034,-3.898321 9.5281,-7.159241 z m -13.84773,10.501681 2.19366,12.31139 c -2.56087,0.97671 -5.11651,1.96646 -7.67188,2.95744 l -3.03134,-8.42067 c 2.71951,-2.26122 5.46028,-4.48656 8.50956,-6.84816 z m -12.45816,10.16733 2.466,6.85023 -2.59312,1.00201 c -1.20278,0.0275 -3.98647,0.13352 -8.47347,-0.0287 3.09132,-2.60788 5.96548,-5.59382 8.60059,-7.82353 z"
       sodipodi:nodetypes="ccsccccccccccccc" />
    <path
       id="path1008-1"
       style="fill:none;fill-opacity:1;stroke:#800000;stroke-width:3;stroke-miterlimit:4;stroke-dasharray:none;stroke-opacity:1"
       d="m 170.31347,122.95291 c -1.21493,4.22491 -5.75621,13.52656 -6.88557,15.13481 -4.66069,-0.2013 -4.94219,-0.16517 -8.2086,-0.46232 l 4.96611,-12.81162 c 6.76055,-1.36155 6.85405,-1.45946 10.12806,-1.86087 z m -15.75717,2.99414 -4.34806,11.21792 c -4.10889,-0.29144 -7.55484,-0.78801 -11.77204,-1.37447 3.94933,-2.99842 5.91501,-5.48576 9.75511,-8.56085 z"
       sodipodi:nodetypes="cccccccccc" />
    <path
       id="path1004-8"
       style="fill:none;fill-opacity:1;stroke:#800000;stroke-width:3;stroke-miterlimit:4;stroke-dasharray:none;stroke-opacity:1"
       d="m 134.12588,139.56357 c 3.28738,0.58211 6.22914,1.15462 8.93396,1.88227 l -6.85798,5.70508 -3.98683,-2.46135 c -0.35543,-1.22109 -0.72295,-1.73613 -1.01992,-2.97129 0.75505,-0.65894 1.91964,-2.05483 2.93077,-2.15471 z m 14.64473,3.42636 c 4.29317,1.16678 8.13515,2.22112 8.37364,2.31562 -3.41422,3.80642 -5.90316,5.49609 -9.21752,8.49716 -3.75597,-2.04176 -4.4789,-2.37866 -7.37836,-3.97289 z"
       sodipodi:nodetypes="ccccccccccc" />
    <path
       style="fill:none;fill-opacity:1;stroke:#800000;stroke-width:3;stroke-miterlimit:4;stroke-dasharray:none;stroke-opacity:1"
       d="m 112.63128,142.39156 c 2.43119,1.40643 3.55724,2.32127 6.46603,4.31422 -0.76098,-2.86304 -1.38117,-4.55484 -2.21135,-7.61357 2.18974,-2.06337 3.14812,-2.89152 5.30237,-4.91692 -2.82653,-0.13388 -4.04739,-0.1194 -6.52233,-0.1194 -0.9813,-3.20818 -1.64031,-4.51629 -2.77264,-7.65095 -1.12695,2.71779 -1.80228,5.06735 -2.73724,7.64545 -2.2822,0.0284 -4.5644,0.0567 -6.8466,0.0851 1.9361,1.81428 3.64149,3.2481 5.32934,4.93515 -0.69034,3.17719 -0.96448,3.86493 -2.00033,7.72112 4.14422,-2.91815 1.81339,-1.09668 5.99275,-4.4002 z"
       id="path1000"
       sodipodi:nodetypes="ccccccccccc" />
  </g>
</svg>
